[
  {
    'UserId': 0,
    'Title': 'ms',
    'FirstName': 'clara',
    'LastName': 'taylor',
    'Email': 'clara.taylor@example.com',
    'Username': 'greenkoala958',
    'DOB': datetime.date(1954,
    7,
    23)
  },
  {
    'UserId': 1,
    'Title': 'mr',
    'FirstName': 'joaquin',
    'LastName': 'rubio',
    'Email': 'joaquin.rubio@example.com',
    'Username': 'heavyleopard436',
    'DOB': datetime.date(1957,
    12,
    23)
  },
  {
    'UserId': 2,
    'Title': 'mr',
    'FirstName': 'laurenz',
    'LastName': 'meißner',
    'Email': 'laurenz.meißner@example.com',
    'Username': 'ticklishladybug485',
    'DOB': datetime.date(1972,
    11,
    22)
  },
  {
    'UserId': 3,
    'Title': 'mr',
    'FirstName': 'john',
    'LastName': 'jones',
    'Email': 'john.jones@example.com',
    'Username': 'bluedog186',
    'DOB': datetime.date(1949,
    7,
    22)
  },
  {
    'UserId': 4,
    'Title': 'mrs',
    'FirstName': 'michelle',
    'LastName': 'henry',
    'Email': 'michelle.henry@example.com',
    'Username': 'ticklishrabbit736',
    'DOB': datetime.date(1978,
    8,
    8)
  },
  {
    'UserId': 5,
    'Title': 'miss',
    'FirstName': 'stacy',
    'LastName': 'snyder',
    'Email': 'stacy.snyder@example.com',
    'Username': 'blacklion506',
    'DOB': datetime.date(1951,
    7,
    25)
  },
  {
    'UserId': 6,
    'Title': 'mr',
    'FirstName': 'lauri',
    'LastName': 'laakso',
    'Email': 'lauri.laakso@example.com',
    'Username': 'greenkoala490',
    'DOB': datetime.date(1994,
    10,
    18)
  },
  {
    'UserId': 7,
    'Title': 'mr',
    'FirstName': 'umut',
    'LastName': 'yorulmaz',
    'Email': 'umut.yorulmaz@example.com',
    'Username': 'silverrabbit484',
    'DOB': datetime.date(1950,
    5,
    23)
  },
  {
    'UserId': 8,
    'Title': 'ms',
    'FirstName': 'hélèna',
    'LastName': 'berger',
    'Email': 'hélèna.berger@example.com',
    'Username': 'beautifulswan687',
    'DOB': datetime.date(1964,
    10,
    22)
  },
  {
    'UserId': 9,
    'Title': 'mr',
    'FirstName': 'storm',
    'LastName': 'thomsen',
    'Email': 'storm.thomsen@example.com',
    'Username': 'blackduck513',
    'DOB': datetime.date(1961,
    11,
    25)
  }
]
