[
  {
    "name": "${service_name}-redis",
    "image": "redis:3.2.7",
    "cpu": 256,
    "memoryReservation": 256,
    "portMappings": [
      {
        "hostPort": 6379,
        "protocol": "tcp",
        "containerPort": 6379
      }
    ]
  },
  {
    "name": "${service_name}-scheduler",
    "image": "830543758886.dkr.ecr.${region}.amazonaws.com/${image}:latest",
    "cpu": 1024,
    "essential": false,
    "memoryReservation": 512,
    "command": [
      "scheduler"
    ],
    "mountPoints": [
      {
        "sourceVolume": "dags",
        "containerPath": "/usr/local/airflow/dags",
        "readOnly": false
      },
      {
        "sourceVolume": "projects",
        "containerPath": "/usr/local/airflow/projects",
        "readOnly": false
      }
    ],
    "logConfiguration": {
      "logDriver": "awslogs",
      "options": {
        "awslogs-group": "${service_name}/var/log/docker",
        "awslogs-region": "us-east-2",
        "awslogs-stream-prefix": "${environment}/${service_name}/scheduler"
      }
    },
    "environment": [
      {
        "name": "AIRFLOW_HOME",
        "value": "/usr/local/airflow"
      },
      {
        "name": "AIRFLOW__CORE__SQL_ALCHEMY_CONN",
        "value": "postgres+psycopg2://${rds_username}:${rds_password}@${rds_host}:5432/${rds_database}"
      },
      {
        "name": "AIRFLOW__CELERY__CELERY_RESULT_BACKEND",
        "value": "db+postgresql://${rds_username}:${rds_password}@${rds_host}:5432/${rds_database}"
      },
      {
        "name": "AIRFLOW__CELERY__BROKER_URL",
        "value": "redis://${redis_host}:6379/1"
      },
      {
        "name": "AIRFLOW__CORE__EXECUTOR",
        "value": "CeleryExecutor"
      },
      {
        "name": "LOAD_EX",
        "value": "n"
      },
      {
        "name": "AIRFLOW__CORE__FERNET_KEY",
        "value": "${fernet_key}"
      },
      {
        "name": "FERNET_KEY",
        "value": "${fernet_key}"
      },
      {
        "name": "POSTGRES_HOST",
        "value": "${rds_host}"
      },
      {
        "name": "REDIS_HOST",
        "value": "${redis_host}"
      }
    ]
  },
  {
    "name": "${service_name}-worker",
    "image": "830543758886.dkr.ecr.${region}.amazonaws.com/${image}:latest",
    "cpu": 512,
    "essential": false,
    "memoryReservation": 512,
    "command": [
      "worker"
    ],
    "mountPoints": [
      {
        "sourceVolume": "dags",
        "containerPath": "/usr/local/airflow/dags",
        "readOnly": false
      },
      {
        "sourceVolume": "projects",
        "containerPath": "/usr/local/airflow/projects",
        "readOnly": false
      }
    ],
    "logConfiguration": {
      "logDriver": "awslogs",
      "options": {
        "awslogs-group": "${service_name}/var/log/docker",
        "awslogs-region": "us-east-2",
        "awslogs-stream-prefix": "${environment}/${service_name}/scheduler"
      }
    },
    "environment": [
      {
        "name": "AIRFLOW_HOME",
        "value": "/usr/local/airflow"
      },
      {
        "name": "AIRFLOW__CORE__SQL_ALCHEMY_CONN",
        "value": "postgres+psycopg2://${rds_username}:${rds_password}@${rds_host}:5432/${rds_database}"
      },
      {
        "name": "AIRFLOW__CELERY__CELERY_RESULT_BACKEND",
        "value": "db+postgresql://${rds_username}:${rds_password}@${rds_host}:5432/${rds_database}"
      },
      {
        "name": "AIRFLOW__CELERY__BROKER_URL",
        "value": "redis://${redis_host}:6379/1"
      },
      {
        "name": "AIRFLOW__CORE__EXECUTOR",
        "value": "CeleryExecutor"
      },
      {
        "name": "AIRFLOW__CORE__LOAD_EXAMPLES",
        "value": "False"
      },
      {
        "name": "AIRFLOW__CORE__FERNET_KEY",
        "value": "${fernet_key}"
      },
      {
        "name": "FERNET_KEY",
        "value": "${fernet_key}"
      },
      {
        "name": "POSTGRES_HOST",
        "value": "${rds_host}"
      },
      {
        "name": "REDIS_HOST",
        "value": "${redis_host}"
      }
    ]
  }
]