{
  "Version": "2012-10-17",
  "Statement": [
    {
      "Effect": "Allow",
      "Action": [
        "ecs:CreateCluster",
        "ecs:DeregisterContainerInstance",
        "ecs:DiscoverPollEndpoint",
        "ecs:Poll",
        "ecs:RegisterContainerInstance",
        "ecs:StartTelemetrySession",
        "ecs:Submit*",
        "ecs:StartTask",
        "ecr:GetAuthorizationToken",
        "ecr:BatchCheckLayerAvailability",
        "ecr:GetDownloadUrlForLayer",
        "ecr:BatchGetImage",
        "logs:CreateLogGroup",
        "logs:CreateLogStream",
        "logs:PutLogEvents",
        "logs:DescribeLogStreams",
        "ec2:AuthorizeSecurityGroupIngress",
        "ec2:Describe*",
        "elasticfilesystem:DescribeFileSystems",
        "elasticfilesystem:DescribeTags",
        "kms:Get*",
        "kms:ImportKeyMaterial",
        "s3:*"
      ],
      "Resource": "*"
    }
  ]
}
